[
    {
      "text": "What is the capital of Luxembourg ?",
      "createdAt": "2019-06-01 00:00:00",
      "choices": [
        {
          "text": "Luxembourg"
        },
        {
          "text": "Paris"
        },
        {
          "text": "Berlin"
        }
      ]
    },
    {
      "text": "What does mean O.A.T. ?",
      "createdAt": "2019-06-02 00:00:00",
      "choices": [
        {
          "text": "Open Assignment Technologies"
        },
        {
          "text": "Open Assessment Technologies"
        },
        {
          "text": "Open Acknowledgment Technologies"
        }
      ]
    }
  ]
  